Cognitive Aspects of Software Development: a SMS
…
ggsave("years_swebok.pdf")

## Saving 7 x 5 in image

## Warning: Removed 160 rows containing missing values (position_stack).

data

## # A tibble: 217 x 85
##    Extractor Identifier Title Venue  Year Exclude    SR    SD    SC    ST    SM
##    <chr>     <chr>      <chr> <chr> <dbl>   <dbl> <dbl> <dbl> <dbl> <dbl> <dbl>
##  1 Michael  Abrahao20 Asse IEEE  2013      NA     1    NA    NA    NA    NA
##  2 Michael  Adelson19 Prob Memo  1981      NA    NA    NA     1    NA    NA
##  3 Michael  Agarwal19 Cogn J. M  1996      NA    NA     1    NA    NA    NA
##  4 Michael  Agarwal19 The  Int'  1996      NA    NA     1    NA    NA    NA
##  5 Robert    Agarwal19 Comp <NA>   1999      NA    NA     1     1    NA    NA
##  6 Fabian F. Alexandro Scen 36th  2014      NA    NA    NA     1    NA    NA
##  7 Michael  Anu2016    Effe Proc  2016      NA     1    NA    NA    NA    NA
##  8 Michael  Aranda2005 Anch ESEC  2005      NA    NA    NA    NA    NA    NA
##  9 Michael  Aranda2005 A Co 4th   2005      NA     1    NA    NA    NA    NA
## 10 Michael  Aranda200 Towa WER   2005      NA     1    NA    NA    NA    NA
## #  with 207 more rows, and 74 more variables: SCM <dbl>, SEM <dbl>, SEP <dbl>,
## #   SEMM <dbl>, SQ <dbl>, SEPP <dbl>, SEE <dbl>, CF <lgl>, MF <lgl>, EF <dbl>,
## #   Theory <chr>, `Cognitive Concepts` <chr>, `Cognitive Measures` <chr>,
## #   Assessment <chr>, `Added Value of Cognitive Aspect` <chr>, Academia <chr>,
## #   Industry <chr>, `Solution Proposal (example)` <dbl>, `Empirical
## #   Study` <dbl>, `Experience Papers` <dbl>, `Philosophical Papers` <dbl>,
## #   `Opinion Papers` <dbl>, `Outcome\nContribution\n\n\n\n\n\n` <chr>,
## #   ...35 <dbl>, Attention <dbl>, `Selective attention` <dbl>, `Divided
## #   attention` <dbl>, `Sustained attention` <dbl>, Memory <dbl>, `Working
…
